{
  "lockfileVersion": 1,
  "dependencies": {
    "bootstrap": {
      "version": "4.0.0-beta.3",
      "resolved": "https://registry.npmjs.org/bootstrap/-/bootstrap-4.0.0-beta.3.tgz",
      "integrity": "sha512-/Qe1Q2d1muLEZRX2iCteMQHZBBAm6ZIjJ9FcBYK/xLr05+HvDtBOVBN+Cz7mCNZuy0zr+y5artZHM05W7mIz6g=="
    },
    "d": {
      "version": "1.0.0",
      "resolved": "https://registry.npmjs.org/d/-/d-1.0.0.tgz",
      "integrity": "sha1-dUu1v+VUUdpppYuU1F9MWwRi1Y8="
    },
    "es5-ext": {
      "version": "0.10.38",
      "resolved": "https://registry.npmjs.org/es5-ext/-/es5-ext-0.10.38.tgz",
      "integrity": "sha512-jCMyePo7AXbUESwbl8Qi01VSH2piY9s/a3rSU/5w/MlTIx8HPL1xn2InGN8ejt/xulcJgnTO7vqNtOAxzYd2Kg=="
    },
    "es6-iterator": {
      "version": "2.0.3",
      "resolved": "https://registry.npmjs.org/es6-iterator/-/es6-iterator-2.0.3.tgz",
      "integrity": "sha1-p96IkUGgWpSwhUQDstCg+/qY87c="
    },
    "es6-symbol": {
      "version": "3.1.1",
      "resolved": "https://registry.npmjs.org/es6-symbol/-/es6-symbol-3.1.1.tgz",
      "integrity": "sha1-vwDvT9q2uhtG7Le2KbTH7VcVzHc="
    },
    "flatpickr": {
      "version": "2.4.8",
      "resolved": "https://registry.npmjs.org/flatpickr/-/flatpickr-2.4.8.tgz",
      "integrity": "sha1-FSE2xmVwieu3xq+M2WkFTFW9PdQ="
    },
    "jquery": {
      "version": "3.2.1",
      "resolved": "https://registry.npmjs.org/jquery/-/jquery-3.2.1.tgz",
      "integrity": "sha1-XE2d5lKvbNCncBVKYxu6ErAVx4c="
    },
    "moment-range": {
      "version": "3.1.1",
      "resolved": "https://registry.npmjs.org/moment-range/-/moment-range-3.1.1.tgz",
      "integrity": "sha1-XFLPn6sp253ZvNhtN+UrBKenJxo="
    },
    "popper.js": {
      "version": "1.12.9",
      "resolved": "https://registry.npmjs.org/popper.js/-/popper.js-1.12.9.tgz",
      "integrity": "sha1-DfvC3/lsRRuzMu3Pz6r1ZtMx1bM="
    }
  }
}
